gcd.vcd
$version Generated by VerilatedVcd $end
$timescale 1ps $end
 $scope module TOP $end
  $var wire 1 # clock $end
  $var wire 1 $ reset $end
  $var wire 16 % io_value1 [15:0] $end
  $var wire 16 & io_value2 [15:0] $end
  $var wire 1 ' io_loadingValues $end
  $var wire 16 ( io_outputGCD [15:0] $end
  $var wire 1 ) io_outputValid $end
  $scope module GCD $end
   $var wire 1 # clock $end
   $var wire 1 $ reset $end
   $var wire 16 % io_value1 [15:0] $end
   $var wire 16 & io_value2 [15:0] $end
   $var wire 1 ' io_loadingValues $end
   $var wire 16 ( io_outputGCD [15:0] $end
   $var wire 1 ) io_outputValid $end
   $var wire 16 * x [15:0] $end
   $var wire 16 + y [15:0] $end
  $upscope $end
 $upscope $end
$enddefinitions $end


#0
1#
1$
b0000000000000000 %
b0000000000000000 &
0'
b0000000000000000 (
1)
b0000000000000000 *
b0000000000000000 +
#10
0#
#20
1#
#30
0#
#40
1#
#45
0$
b0101111001010101 %
b0011111101000111 &
#50
0#
#55
1#
1'
b0101111001010101 (
0)
b0101111001010101 *
b0011111101000111 +
#60
0#
#65
1#
0'
b0001111100001110 (
b0001111100001110 *
#70
0#
#75
1#
b0010000000111001 +
#80
0#
#85
1#
b0000000100101011 +
#90
0#
#95
1#
b0001110111100011 (
b0001110111100011 *
#100
0#
#105
1#
b0001110010111000 (
b0001110010111000 *
#110
0#
#115
1#
b0001101110001101 (
b0001101110001101 *
#120
0#
#125
1#
b0001101001100010 (
b0001101001100010 *
#130
0#
#135
1#
b0001100100110111 (
b0001100100110111 *
#140
0#
#145
1#
b0001100000001100 (
b0001100000001100 *
#150
0#
#155
1#
b0001011011100001 (
b0001011011100001 *
#160
0#
#165
1#
b0001010110110110 (
b0001010110110110 *
#170
0#
#175
1#
b0001010010001011 (
b0001010010001011 *
#180
0#
#185
1#
b0001001101100000 (
b0001001101100000 *
#190
0#
#195
1#
b0001001000110101 (
b0001001000110101 *
#200
0#
#205
1#
b0001000100001010 (
b0001000100001010 *
#210
0#
#215
1#
b0000111111011111 (
b0000111111011111 *
#220
0#
#225
1#
b0000111010110100 (
b0000111010110100 *
#230
0#
#235
1#
b0000110110001001 (
b0000110110001001 *
#240
0#
#245
1#
b0000110001011110 (
b0000110001011110 *
#250
0#
#255
1#
b0000101100110011 (
b0000101100110011 *
#260
0#
#265
1#
b0000101000001000 (
b0000101000001000 *
#270
0#
#275
1#
b0000100011011101 (
b0000100011011101 *
#280
0#
#285
1#
b0000011110110010 (
b0000011110110010 *
#290
0#
#295
1#
b0000011010000111 (
b0000011010000111 *
#300
0#
#305
1#
b0000010101011100 (
b0000010101011100 *
#310
0#
#315
1#
b0000010000110001 (
b0000010000110001 *
#320
0#
#325
1#
b0000001100000110 (
b0000001100000110 *
#330
0#
#335
1#
b0000000111011011 (
b0000000111011011 *
#340
0#
#345
1#
b0000000010110000 (
b0000000010110000 *
#350
0#
#355
1#
b0000000001111011 +
#360
0#
#365
1#
b0000000000110101 (
b0000000000110101 *
#370
0#
#375
1#
b0000000001000110 +
#380
0#
#385
1#
b0000000000010001 +
#390
0#
#395
1#
b0000000000100100 (
b0000000000100100 *
#400
0#
#405
1#
b0000000000010011 (
b0000000000010011 *
#410
0#
#415
1#
b0000000000000010 (
b0000000000000010 *
#420
0#
#425
1#
b0000000000001111 +
#430
0#
#435
1#
b0000000000001101 +
#440
0#
#445
1#
b0000000000001011 +
#450
0#
#455
1#
b0000000000001001 +
#460
0#
#465
1#
b0000000000000111 +
#470
0#
#475
1#
b0000000000000101 +
#480
0#
#485
1#
b0000000000000011 +
#490
0#
#495
1#
b0000000000000001 +
#500
0#
#505
1#
b0000000000000001 (
b0000000000000001 *
#510
0#
#515
1#
1)
b0000000000000000 +
